x,s_a,s_b
0,100.000000,0.000000
1,97.000000,3.000000
2,92.926003,7.074000
3,87.508789,12.491215
4,80.511162,19.488842
5,71.819550,28.180454
6,61.569332,38.430672
7,50.257648,49.742355
8,38.750183,61.249821
9,28.093910,71.906097
10,19.170601,80.829407
11,12.397290,87.602715
12,7.681227,92.318779
13,4.614305,95.385704
14,2.715321,97.284691
15,1.577225,98.422791
